Verilog/dump.vcd
$date
	Tue Sep  3 02:49:28 2024
$end
$version
	Icarus Verilog
$end
$timescale
	1ps
$end
$scope module i2c_controller_tb $end
$var wire 1 ! i2c_sda $end
$var wire 1 " ready $end
$var wire 1 # i2c_scl $end
$var wire 8 $ data_out [7:0] $end
$var reg 7 % addr [6:0] $end
$var reg 1 & clk $end
$var reg 8 ' data_in [7:0] $end
$var reg 1 ( enable $end
$var reg 1 ) rst $end
$var reg 1 * rw $end
$scope module master $end
$var wire 7 + addr [6:0] $end
$var wire 1 & clk $end
$var wire 8 , data_in [7:0] $end
$var wire 1 ( enable $end
$var wire 1 ! i2c_sda $end
$var wire 1 ) rst $end
$var wire 1 * rw $end
$var wire 1 " ready $end
$var wire 1 # i2c_scl $end
$var reg 8 - counter [7:0] $end
$var reg 8 . counter2 [7:0] $end
$var reg 8 / data_out [7:0] $end
$var reg 1 0 i2c_clk $end
$var reg 1 1 i2c_scl_enable $end
$var reg 8 2 saved_addr [7:0] $end
$var reg 8 3 saved_data [7:0] $end
$var reg 1 4 sda_out $end
$var reg 8 5 state [7:0] $end
$var reg 1 6 write_enable $end
$upscope $end
$scope module slave $end
$var wire 1 # scl $end
$var wire 1 ! sda $end
$var reg 8 7 addr [7:0] $end
$var reg 8 8 counter [7:0] $end
$var reg 8 9 data_in [7:0] $end
$var reg 8 : data_out [7:0] $end
$var reg 1 ; sda_in $end
$var reg 1 < sda_out $end
$var reg 1 = start $end
$var reg 8 > state [7:0] $end
$var reg 1 ? write_enable $end
$upscope $end
$upscope $end
$enddefinitions $end
#0
$dumpvars
0?
b0 >
0=
0<
0;
b11001100 :
b0 9
bx 8
bx 7
16
b0 5
14
bx 3
bx 2
01
10
bx /
b0 .
bx -
bx ,
bx +
x*
1)
x(
bx '
0&
bx %
bx $
1#
0"
1!
$end
#5000
b1 .
1&
#10000
0&
#15000
b0 .
00
1&
#20000
0&
#25000
b1 .
1&
#30000
0&
#35000
b0 .
10
1&
#40000
0&
#45000
b1 .
1&
#50000
0&
#55000
b0 .
00
1&
#60000
0&
#65000
b1 .
1&
#70000
0&
#75000
b0 .
10
1&
#80000
0&
#85000
b1 .
1&
#90000
0&
#95000
b0 .
00
1&
#100000
1"
0&
1(
0*
b10101010 '
b10101010 ,
b101010 %
b101010 +
0)
#105000
b1 .
1&
#110000
0&
0(
#115000
b0 .
10
1&
#120000
0&
#125000
b1 .
1&
#130000
0&
#135000
b0 .
00
1&
#140000
0&
#145000
b1 .
1&
#150000
0&
#155000
b0 .
10
1&
#160000
0&
#165000
b1 .
1&
#170000
0&
#175000
b0 .
00
1&
#180000
0&
#185000
b1 .
1&
#190000
0&
#195000
b0 .
10
1&
#200000
0&
#205000
b1 .
1&
#210000
0&
#215000
b0 .
00
1&
#220000
0&
#225000
b1 .
1&
#230000
0&
#235000
b0 .
10
1&
#240000
0&
#245000
b1 .
1&
#250000
0&
#255000
b0 .
00
1&
#260000
0&
#265000
b1 .
1&
#270000
0&
#275000
b0 .
10
1&
#280000
0&
#285000
b1 .
1&
#290000
0&
#295000
b0 .
00
1&
#300000
0&
#305000
b1 .
1&
#310000
0&
#315000
b0 .
10
1&
#320000
0&
#325000
b1 .
1&
#330000
0&
#335000
b0 .
00
1&
#340000
0&
#345000
b1 .
1&
#350000
0&
#355000
b0 .
10
1&
#360000
0&
#365000
b1 .
1&
#370000
0&
#375000
b0 .
00
1&
#380000
0&
#385000
b1 .
1&
#390000
0&
#395000
b0 .
10
1&
#400000
0&
#405000
b1 .
1&
#410000
0&
#415000
b0 .
00
1&
#420000
0&
#425000
b1 .
1&
#430000
0&
#435000
b0 .
10
1&
#440000
0&
#445000
b1 .
1&
#450000
0&
#455000
b0 .
00
1&
#460000
0&
#465000
b1 .
1&
#470000
0&
#475000
b0 .
10
1&
#480000
0&
#485000
b1 .
1&
#490000
0&
#495000
b0 .
00
1&
#500000
0&
#505000
b1 .
1&
#510000
0&
#515000
b0 .
10
1&
#520000
0&
#525000
b1 .
1&
#530000
0&
#535000
b0 .
00
1&
#540000
0&
#545000
b1 .
1&
#550000
0&
#555000
b0 .
10
1&
#560000
0&
#565000
b1 .
1&
#570000
0&
#575000
b0 .
00
1&
#580000
0&
#585000
b1 .
1&
#590000
0&
#595000
b0 .
10
1&
#600000
0&
#605000
b1 .
1&
#610000
0&
#615000
b0 .
00
1&
#620000
0&
#625000
b1 .
1&
#630000
0&
#635000
b0 .
10
1&
#640000
0&
#645000
b1 .
1&
#650000
0&
#655000
b0 .
00
1&
#660000
0&
#665000
b1 .
1&
#670000
0&
#675000
b0 .
10
1&
#680000
0&
#685000
b1 .
1&
#690000
0&
#695000
b0 .
00
1&
#700000
0&
#705000
b1 .
1&
#710000
0&
#715000
b0 .
10
1&
#720000
0&
#725000
b1 .
1&
#730000
0&
#735000
b0 .
00
1&
#740000
0&
#745000
b1 .
1&
#750000
0&
#755000
b0 .
10
1&
#760000
0&
#765000
b1 .
1&
#770000
0&
#775000
b0 .
00
1&
#780000
0&
#785000
b1 .
1&
#790000
0&
#795000
b0 .
10
1&
#800000
0&
#805000
b1 .
1&
#810000
0&
#815000
b0 .
00
1&
#820000
0&
#825000
b1 .
1&
#830000
0&
#835000
b0 .
10
1&
#840000
0&
#845000
b1 .
1&
#850000
0&
#855000
b0 .
00
1&
#860000
0&
#865000
b1 .
1&
#870000
0&
#875000
b0 .
10
1&
#880000
0&
#885000
b1 .
1&
#890000
0&
#895000
b0 .
00
1&
#900000
0&
#905000
b1 .
1&
#910000
0&
#915000
b0 .
10
1&
#920000
0&
#925000
b1 .
1&
#930000
0&
#935000
b0 .
00
1&
#940000
0&
#945000
b1 .
1&
#950000
0&
#955000
b0 .
10
1&
#960000
0&
#965000
b1 .
1&
#970000
0&
#975000
b0 .
00
1&
#980000
0&
#985000
b1 .
1&
#990000
0&
#995000
b0 .
10
1&
#1000000
0&
#1005000
b1 .
1&
#1010000
0&
#1015000
b0 .
00
1&
#1020000
0&
#1025000
b1 .
1&
#1030000
0&
#1035000
b0 .
10
1&
#1040000
0&
#1045000
b1 .
1&
#1050000
0&
#1055000
b0 .
00
1&
#1060000
0&
#1065000
b1 .
1&
#1070000
0&
#1075000
b0 .
10
1&
#1080000
0&
#1085000
b1 .
1&
#1090000
0&
#1095000
b0 .
00
1&
#1100000
0&
#1105000
b1 .
1&
